lab2/dump.vcd
$date
	Mon Mar 17 21:12:49 2025
$end
$version
	ModelSim Version 10.5b
$end
$timescale
	1ps
$end

$scope module DMAC_CFG_TB $end

$scope module u_DUT $end
$var wire 1 ! clk $end
$var wire 1 " rst_n $end
$var wire 1 # psel_i $end
$var wire 1 $ penable_i $end
$var wire 1 % paddr_i [11] $end
$var wire 1 & paddr_i [10] $end
$var wire 1 ' paddr_i [9] $end
$var wire 1 ( paddr_i [8] $end
$var wire 1 ) paddr_i [7] $end
$var wire 1 * paddr_i [6] $end
$var wire 1 + paddr_i [5] $end
$var wire 1 , paddr_i [4] $end
$var wire 1 - paddr_i [3] $end
$var wire 1 . paddr_i [2] $end
$var wire 1 / paddr_i [1] $end
$var wire 1 0 paddr_i [0] $end
$var wire 1 1 pwrite_i $end
$var wire 1 2 pwdata_i [31] $end
$var wire 1 3 pwdata_i [30] $end
$var wire 1 4 pwdata_i [29] $end
$var wire 1 5 pwdata_i [28] $end
$var wire 1 6 pwdata_i [27] $end
$var wire 1 7 pwdata_i [26] $end
$var wire 1 8 pwdata_i [25] $end
$var wire 1 9 pwdata_i [24] $end
$var wire 1 : pwdata_i [23] $end
$var wire 1 ; pwdata_i [22] $end
$var wire 1 < pwdata_i [21] $end
$var wire 1 = pwdata_i [20] $end
$var wire 1 > pwdata_i [19] $end
$var wire 1 ? pwdata_i [18] $end
$var wire 1 @ pwdata_i [17] $end
$var wire 1 A pwdata_i [16] $end
$var wire 1 B pwdata_i [15] $end
$var wire 1 C pwdata_i [14] $end
$var wire 1 D pwdata_i [13] $end
$var wire 1 E pwdata_i [12] $end
$var wire 1 F pwdata_i [11] $end
$var wire 1 G pwdata_i [10] $end
$var wire 1 H pwdata_i [9] $end
$var wire 1 I pwdata_i [8] $end
$var wire 1 J pwdata_i [7] $end
$var wire 1 K pwdata_i [6] $end
$var wire 1 L pwdata_i [5] $end
$var wire 1 M pwdata_i [4] $end
$var wire 1 N pwdata_i [3] $end
$var wire 1 O pwdata_i [2] $end
$var wire 1 P pwdata_i [1] $end
$var wire 1 Q pwdata_i [0] $end
$var reg 1 R pready_o $end
$var reg 32 S prdata_o [31:0] $end
$var reg 1 T pslverr_o $end
$var reg 32 U src_addr_o [31:0] $end
$var reg 32 V dst_addr_o [31:0] $end
$var reg 16 W byte_len_o [15:0] $end
$var wire 1 X start_o $end
$var wire 1 Y done_i $end
$var reg 192 Z cfg [191:0] $end
$var reg 1 [ memory_error $end
$var reg 1 \ start_error $end
$var reg 32 ] rdata [31:0] $end
$var reg 1 ^ start_avalibale $end
$var wire 1 _ start $end
$var wire 1 ` wren $end
$var wire 1 a rden $end
$upscope $end
$upscope $end
$enddefinitions $end
#0
$dumpvars
1R
b0 S
0T
b0 U
b0 V
b0 W
b100100000001001010000000000000000000000000000000000000000000000000000000000000000000000000000000000000000000000000000000000000000000000000000000000000000000000000000000000000001 Z
0[
0\
b0 ]
0^
0_
0`
0a
1Y
0!
0"
0#
0$
00
0/
0.
0-
0,
0+
0*
0)
0(
0'
0&
0%
01
0Q
0P
0O
0N
0M
0L
0K
0J
0I
0H
0G
0F
0E
0D
0C
0B
0A
0@
0?
0>
0=
0<
0;
0:
09
08
07
06
05
04
03
02
0X
$end
#10
1!
#20
0!
#30
1!
#40
0!
#50
1!
1"
#60
0!
#70
1!
#80
0!
#90
1!
#100
0!
#110
1!
#120
0!
#130
1!
#140
0!
#150
1!
#160
0!
#170
1!
#180
0!
#190
1!
#200
0!
#210
1!
#220
0!
#230
1!
#240
0!
#250
1!
#251
1#
xQ
xP
xO
xN
xM
xL
xK
xJ
xI
xH
xG
xF
xE
xD
xC
xB
xA
x@
x?
x>
x=
x<
x;
x:
x9
x8
x7
x6
x5
x4
x3
x2
1a
#260
0!
#270
1!
b10010000000100101 ]
b10010000000100101 S
#271
1$
0a
#280
0!
#290
1!
0$
1a
0#
x1
x0
x/
x.
x-
x,
x+
x*
x)
x(
x'
x&
x%
0a
#291
1#
01
00
0/
0.
0-
0,
0+
0*
0)
1(
0'
0&
0%
1a
#300
0!
#310
1!
b0 ]
b0 S
#311
1$
0a
#320
0!
#330
1!
0$
1a
0#
x1
x0
x/
x.
x-
x,
x+
x*
x)
x(
x'
x&
x%
0a
#331
1#
01
00
0/
1.
0-
0,
0+
0*
0)
1(
0'
0&
0%
1a
#340
0!
#350
1!
#351
1$
0a
#360
0!
#370
1!
0$
1a
0#
x1
x0
x/
x.
x-
x,
x+
x*
x)
x(
x'
x&
x%
0a
#371
1#
01
00
0/
0.
1-
0,
0+
0*
0)
1(
0'
0&
0%
1a
#380
0!
#390
1!
#391
1$
0a
#400
0!
#410
1!
0$
1a
0#
x1
x0
x/
x.
x-
x,
x+
x*
x)
x(
x'
x&
x%
0a
#411
1#
01
00
0/
0.
0-
1,
0+
0*
0)
1(
0'
0&
0%
1a
#420
0!
#430
1!
b1 ]
b1 S
#431
1$
0a
#440
0!
#450
1!
0$
1a
0#
x1
x0
x/
x.
x-
x,
x+
x*
x)
x(
x'
x&
x%
0a
#451
1#
11
00
0/
0.
0-
0,
0+
0*
0)
1(
0'
0&
0%
0Q
0P
0O
0N
0M
0L
0K
0J
0I
0H
0G
0F
1E
0D
0C
0B
0A
0@
0?
0>
0=
0<
0;
0:
09
08
07
06
05
04
03
02
#460
0!
#470
1!
#471
1$
1`
#480
0!
#490
1!
0$
0`
0#
x1
x0
x/
x.
x-
x,
x+
x*
x)
x(
x'
x&
x%
xQ
xP
xO
xN
xM
xL
xK
xJ
xI
xH
xG
xF
xE
xD
xC
xB
xA
x@
x?
x>
x=
x<
x;
x:
x9
x8
x7
x6
x5
x4
x3
x2
b100100000001001010000000000000000000100000000000000000000000000000000000000000000000000000000000000000000000000000000000000000000000000000000000000000000000000000000000000000001 Z
b1000000000000 U
#491
1#
01
00
0/
0.
0-
0,
0+
0*
0)
1(
0'
0&
0%
1a
#500
0!
#510
1!
b1000000000000 ]
b1000000000000 S
#511
1$
0a
#520
0!
#530
1!
0$
1a
0#
x1
x0
x/
x.
x-
x,
x+
x*
x)
x(
x'
x&
x%
0a
#531
1#
11
00
0/
1.
0-
0,
0+
0*
0)
1(
0'
0&
0%
0Q
0P
0O
0N
0M
0L
0K
0J
0I
0H
0G
0F
0E
1D
0C
0B
0A
0@
0?
0>
0=
0<
0;
0:
09
08
07
06
05
04
03
02
#540
0!
#550
1!
#551
1$
1`
#560
0!
#570
1!
0$
0`
0#
x1
x0
x/
x.
x-
x,
x+
x*
x)
x(
x'
x&
x%
xQ
xP
xO
xN
xM
xL
xK
xJ
xI
xH
xG
xF
xE
xD
xC
xB
xA
x@
x?
x>
x=
x<
x;
x:
x9
x8
x7
x6
x5
x4
x3
x2
b100100000001001010000000000000000000100000000000000000000000000000010000000000000000000000000000000000000000000000000000000000000000000000000000000000000000000000000000000000001 Z
b10000000000000 V
#571
1#
01
00
0/
1.
0-
0,
0+
0*
0)
1(
0'
0&
0%
1a
#580
0!
#590
1!
b10000000000000 ]
b10000000000000 S
#591
1$
0a
#600
0!
#610
1!
0$
1a
0#
x1
x0
x/
x.
x-
x,
x+
x*
x)
x(
x'
x&
x%
0a
#611
1#
11
00
0/
0.
1-
0,
0+
0*
0)
1(
0'
0&
0%
0Q
0P
0O
0N
0M
0L
0K
0J
1I
0H
0G
0F
0E
0D
0C
0B
0A
0@
0?
0>
0=
0<
0;
0:
09
08
07
06
05
04
03
02
#620
0!
#630
1!
#631
1$
1`
#640
0!
#650
1!
0$
0`
0#
x1
x0
x/
x.
x-
x,
x+
x*
x)
x(
x'
x&
x%
xQ
xP
xO
xN
xM
xL
xK
xJ
xI
xH
xG
xF
xE
xD
xC
xB
xA
x@
x?
x>
x=
x<
x;
x:
x9
x8
x7
x6
x5
x4
x3
x2
b100100000001001010000000000000000000100000000000000000000000000000010000000000000000000000000000000000001000000000000000000000000000000000000000000000000000000000000000000000001 Z
b100000000 W
#651
1#
01
00
0/
0.
1-
0,
0+
0*
0)
1(
0'
0&
0%
1a
#660
0!
#670
1!
b100000000 ]
b100000000 S
#671
1$
0a
#680
0!
#690
1!
0$
1a
0#
x1
x0
x/
x.
x-
x,
x+
x*
x)
x(
x'
x&
x%
0a
#691
1#
11
00
0/
1.
1-
0,
0+
0*
0)
1(
0'
0&
0%
1Q
0P
0O
0N
0M
0L
0K
0J
0I
0H
0G
0F
0E
0D
0C
0B
0A
0@
0?
0>
0=
0<
0;
0:
09
08
07
06
05
04
03
02
1^
#700
0!
#710
1!
#711
1$
1_
1`
1X
#720
0!
#730
1!
0$
0_
0`
0X
0#
x1
x0
x/
x.
x-
x,
x+
x*
x)
x(
x'
x&
x%
xQ
xP
xO
xN
xM
xL
xK
xJ
xI
xH
xG
xF
xE
xD
xC
xB
xA
x@
x?
x>
x=
x<
x;
x:
x9
x8
x7
x6
x5
x4
x3
x2
0^
b100100000001001010000000000000000000100000000000000000000000000000010000000000000000000000000000000000001000000000000000000000000000000000000000100000000000000000000000000000001 Z
b100100000001001010000000000000000000100000000000000000000000000000010000000000000000000000000000000000001000000000000000000000000000000000000000100000000000000000000000000000000 Z
#731
1#
01
00
0/
0.
0-
1,
0+
0*
0)
1(
0'
0&
0%
1a
#740
0!
#750
1!
b100100000001001010000000000000000000100000000000000000000000000000010000000000000000000000000000000000001000000000000000000000000000000000000000100000000000000000000000000000001 Z
b0 ]
b0 S
#751
1$
0a
#760
0!
#770
1!
0$
1a
0#
x1
x0
x/
x.
x-
x,
x+
x*
x)
x(
x'
x&
x%
0a
